{
  "merchants": [
    {
      "id": 12345798,
      "company_id": 592,
      "brand_id": 6541315,
      "name": "test brand 3",
      "name_localized": {
        "en": "test brand 3"
      },
      "description": null,
      "description_localized": {
        "en": null
      },
      "status_id": 1,
      "offline_until": "",
      "currency_id": 1,
      "currency": {
        "id": 1,
        "code": "AED",
        "name": "Dirham",
        "name_localized": "Dirham",
        "label": "AED",
        "label_localized": "AED",
        "position": "left",
        "decimals": 2,
        "purchasing_power_index": 1,
        "name_short": "Dirhams",
        "cents_100": true
      },
      "priority": 0,
      "is_partner": true,
      "contract_id": 12351213,
      "business_type": "restaurants",
      "registered_tax": 5,
      "is_tax_registered": 1,
      "pos_merchant_id": null,
      "schedule_delivery_fee": 7,
      "schedule_delivery_fee_multiplier": 1,
      "delivery_method": "on_demand",
      "new_until": null,
      "address": {
        "city_id": 1,
        "city_name": "Dubai",
        "city_name_localized": {
          "ar": "دبي",
          "en": "Dubai"
        },
        "restricted_area_id": null,
        "restricted_area_name": null,
        "restricted_area_name_localized": null,
        "area_id": 2357,
        "area_name": "Al Satwa",
        "area_name_localized": {
          "en": "Al Satwa"
        },
        "lat": "25.00000000",
        "lng": "55.00000000",
        "address": "Dubai Al Satwa, Dubai, UAE",
        "address_localized": {
          "en": "Dubai Al Satwa, Dubai, UAE"
        },
        "address_note": null,
        "address_note_localized": {
          "en": null
        }
      },
      "delivery": {
        "delivery_type": "careem",
        "delivery_charge": "7",
        "delivery_distance": "5000",
        "preparation_time": "20",
        "min_order_amount": "0",
        "price_per_person": "45",
        "kitchen_capacity": ""
      },
      "created_at": "2023-05-13T09:27:37+00:00",
      "updated_at": "2023-08-07T04:51:40+00:00",
      "version": "1.1",
      "geo_zone_id": null,
      "merchant_type": "normal",
      "hdl_enabled": false,
      "next_shift_time": null,
      "auto_accept_orders": false,
      "food_zones_enabled": false,
      "express": "no",
      "dispatching_delay": "0",
      "delivery_delay_type": "",
      "target_acceptance_time": "90",
      "hdl_zone_id": "",
      "city": {
        "id": 1,
        "name": "Dubai",
        "name_localized": "Dubai",
        "timezone": "Asia/Dubai",
        "active": true,
        "deliver": true,
        "careem_delivery_field": 14,
        "country": {
          "id": 1,
          "name": "UAE",
          "name_localized": "UAE",
          "iso_code_2": "AE",
          "iso_code_3": "ARE",
          "image_url": "https://careem-mot.imgix.net/v3/app/images/flags/1.png",
          "currency": {
            "id": 1,
            "code": "AED",
            "name": "Dirham",
            "name_localized": "Dirham",
            "label": "AED",
            "label_localized": "AED",
            "position": "left",
            "decimals": 2,
            "purchasing_power_index": 1,
            "name_short": "Dirhams",
            "cents_100": true
          }
        },
        "lat": 25.2048,
        "lng": 55.2708,
        "tax": 5,
        "commission": 0,
        "cod_order_limit": 300,
        "service_area_id": 1
      },
      "status": {
        "id": 1,
        "name": "Active",
        "description": "Merchants are active on the platform, and accepting orders",
        "created_at": "2019-07-22T09:00:21+00:00",
        "updated_at": "2019-07-22T09:00:21+00:00"
      },
      "company": {
        "id": 592,
        "name": "",
        "name_localized": "",
        "country_id": 1,
        "description": null,
        "description_localized": "",
        "created_at": "2020-02-12T10:41:22+00:00",
        "updated_at": "2022-09-12T10:37:28+00:00",
        "contacts": []
      },
      "media": [],
      "merchant_status_expiries": [],
      "location": {
        "uuid": null,
        "provider": "CAREEM",
        "source_uuid": null
      },
      "merchant_tax": {
        "id": 673139,
        "merchant_id": 1049229,
        "include_tax": true,
        "tax_type": 1,
        "tax": 0,
        "tax_prepaid": null,
        "tax_cash": null
      }
    },
    {
      "id": 1234579878,
      "company_id": 592,
      "brand_id": 6541315,
      "name": "test brand 3",
      "name_localized": {
        "en": "test brand 3"
      },
      "description": null,
      "description_localized": {
        "en": null
      },
      "status_id": 1,
      "offline_until": "",
      "currency_id": 1,
      "currency": {
        "id": 1,
        "code": "AED",
        "name": "Dirham",
        "name_localized": "Dirham",
        "label": "AED",
        "label_localized": "AED",
        "position": "left",
        "decimals": 2,
        "purchasing_power_index": 1,
        "name_short": "Dirhams",
        "cents_100": true
      },
      "priority": 0,
      "is_partner": true,
      "contract_id": 12351213,
      "business_type": "restaurants",
      "registered_tax": 5,
      "is_tax_registered": 1,
      "pos_merchant_id": null,
      "schedule_delivery_fee": 7,
      "schedule_delivery_fee_multiplier": 1,
      "delivery_method": "on_demand",
      "new_until": null,
      "address": {
        "city_id": 1,
        "city_name": "Dubai",
        "city_name_localized": {
          "ar": "دبي",
          "en": "Dubai"
        },
        "restricted_area_id": null,
        "restricted_area_name": null,
        "restricted_area_name_localized": null,
        "area_id": 2357,
        "area_name": "Al Barari",
        "area_name_localized": {
          "en": "Al Barari"
        },
        "lat": "25.00000000",
        "lng": "55.00000000",
        "address": "Dubai Al Barari, Dubai, UAE",
        "address_localized": {
          "en": "Dubai Al Barari, Dubai, UAE"
        },
        "address_note": null,
        "address_note_localized": {
          "en": null
        }
      },
      "delivery": {
        "delivery_type": "careem",
        "delivery_charge": "7",
        "delivery_distance": "5000",
        "preparation_time": "20",
        "min_order_amount": "0",
        "price_per_person": "45",
        "kitchen_capacity": ""
      },
      "created_at": "2023-05-13T09:27:37+00:00",
      "updated_at": "2023-08-07T04:51:40+00:00",
      "version": "1.1",
      "geo_zone_id": null,
      "merchant_type": "normal",
      "hdl_enabled": false,
      "next_shift_time": null,
      "auto_accept_orders": false,
      "food_zones_enabled": false,
      "express": "no",
      "dispatching_delay": "0",
      "delivery_delay_type": "",
      "target_acceptance_time": "90",
      "hdl_zone_id": "",
      "city": {
        "id": 1,
        "name": "Dubai",
        "name_localized": "Dubai",
        "timezone": "Asia/Dubai",
        "active": true,
        "deliver": true,
        "careem_delivery_field": 14,
        "country": {
          "id": 1,
          "name": "UAE",
          "name_localized": "UAE",
          "iso_code_2": "AE",
          "iso_code_3": "ARE",
          "image_url": "https://careem-mot.imgix.net/v3/app/images/flags/1.png",
          "currency": {
            "id": 1,
            "code": "AED",
            "name": "Dirham",
            "name_localized": "Dirham",
            "label": "AED",
            "label_localized": "AED",
            "position": "left",
            "decimals": 2,
            "purchasing_power_index": 1,
            "name_short": "Dirhams",
            "cents_100": true
          }
        },
        "lat": 25.2048,
        "lng": 55.2708,
        "tax": 5,
        "commission": 0,
        "cod_order_limit": 300,
        "service_area_id": 1
      },
      "status": {
        "id": 1,
        "name": "Active",
        "description": "Merchants are active on the platform, and accepting orders",
        "created_at": "2019-07-22T09:00:21+00:00",
        "updated_at": "2019-07-22T09:00:21+00:00"
      },
      "company": {
        "id": 592,
        "name": "",
        "name_localized": "",
        "country_id": 1,
        "description": null,
        "description_localized": "",
        "created_at": "2020-02-12T10:41:22+00:00",
        "updated_at": "2022-09-12T10:37:28+00:00",
        "contacts": []
      },
      "media": [],
      "merchant_status_expiries": [],
      "location": {
        "uuid": null,
        "provider": "CAREEM",
        "source_uuid": null
      },
      "merchant_tax": {
        "id": 673139,
        "merchant_id": 1049229,
        "include_tax": true,
        "tax_type": 1,
        "tax": 0,
        "tax_prepaid": null,
        "tax_cash": null
      }
    }
  ],
  "meta": {
    "online_count": 234,
    "inactive_count": 0,
    "offline_count": 5,
    "all_count": 239,
    "pagination": {
      "total": 239,
      "count": 100,
      "per_page": 100,
      "current_page": 1,
      "total_pages": 3,
      "links": {
        "next": "http://merchants.careemnow-internal.com/v1/merchants?page=2"
      }
    }
  }
}